Mortality Tables Estimation with Portfolio Experience
…
Conclusion

In the particular case of study, it seems that Method 4 was the one giving the best fit to the data. Observe that altough Method 5 is more flexible, it did not provide a better fit. The idea is to go little by little until find the best model.

I check the fitted prob with the real probabilities from the simulation and it actually gives a good fit!

The estimated life tables are then:

data$q_hat4 = predict(fit_4,type = "response")

#For MALES
data %>% filter( sex == 0) %>% group_by(x) %>% summarise(q_ref,q_hat4)

## # A tibble: 96 x 3
##        x    q_ref   q_hat4
##    <dbl>    <dbl>    <dbl>
##  1    15 0.000485 0.000645
##  2    16 0.000496 0.000641
##  3    17 0.000509 0.000641
##  4    18 0.000523 0.000641
##  5    19 0.000538 0.000643
##  6    20 0.000554 0.000646
##  7    21 0.000573 0.000652
##  8    22 0.000593 0.000660
##  9    23 0.000615 0.000669
## 10    24 0.000639 0.000681
## # ... with 86 more rows

#For FEMALES
data %>% filter( sex == 1) %>% group_by(x) %>% summarise(q_ref,q_hat4)

## # A tibble: 96 x 3
##        x    q_ref   q_hat4
##    <dbl>    <dbl>    <dbl>
##  1    15 0.000272 0.000269
##  2    16 0.000278 0.000267
##  3    17 0.000285 0.000267
##  4    18 0.000293 0.000267
##  5    19 0.000302 0.000269
##  6    20 0.000311 0.000270
##  7    21 0.000322 0.000273
##  8    22 0.000333 0.000276
##  9    23 0.000345 0.000279
## 10    24 0.000358 0.000283
## # ... with 86 more rows
